{
	"channel_names": { 
   		"0": "CT"
 	},
 	"labels": {
   		"background": 0,
   		"Lymph-node": 1,
		"ignore": 2
 	},
 	"numTraining": 1048,
 	"file_ending": ".nii.gz",
 	"overwrite_image_reader_writer": "SimpleITKIO"
}

